module modernc.org/libcomdlg32

go 1.20.0
<<<<<<< HEAD

require modernc.org/libc v1.59.9

require (
	github.com/dustin/go-humanize v1.0.1 // indirect
	github.com/google/uuid v1.6.0 // indirect
	github.com/mattn/go-isatty v0.0.20 // indirect
	github.com/ncruces/go-strftime v0.1.9 // indirect
	github.com/remyoudompheng/bigfft v0.0.0-20230129092748-24d4a6f8daec // indirect
	golang.org/x/sys v0.22.0 // indirect
	modernc.org/mathutil v1.6.0 // indirect
	modernc.org/memory v1.8.0 // indirect
)
=======
>>>>>>> ok
